# Fdb version 4
["pdflatex"] 1709885937.16414 "c:/Users/etulyon1/Documents/lyon2023_2024/s6/LIFDATA/td/td1.tex" "td1.pdf" "td1" 1709885940.9339 2
  "c:/Users/etulyon1/Documents/lyon2023_2024/s6/LIFDATA/td/td1.tex" 1709885914 56478 70cfcbe84f41b3e8441b3086dcb6e730 ""
  "c:/texlive/2023/texmf-dist/fonts/enc/dvips/base/8r.enc" 1707227962 4850 80dc9bab7f31fb78a000ccfed0e27cab ""
  "c:/texlive/2023/texmf-dist/fonts/map/fontname/texfonts.map" 1707228294 3524 cb3e574dea2d1052e39280babc910dc8 ""
  "c:/texlive/2023/texmf-dist/fonts/tfm/adobe/times/ptmr8r.tfm" 1707231552 4408 25b74d011a4c66b7f212c0cc3c90061b ""
  "c:/texlive/2023/texmf-dist/fonts/tfm/adobe/times/ptmr8t.tfm" 1707231552 6672 e3ab9e37e925f3045c9005e6d1473d56 ""
  "c:/texlive/2023/texmf-dist/fonts/tfm/public/latex-fonts/lasy5.tfm" 1707228938 520 d082ac03a1087bc1ec2a06e24a9f68c0 ""
  "c:/texlive/2023/texmf-dist/fonts/tfm/public/latex-fonts/lasy6.tfm" 1707228938 520 4889cce2180234b97cad636b6039c722 ""
  "c:/texlive/2023/texmf-dist/fonts/tfm/public/latex-fonts/lasy9.tfm" 1707228938 520 1cc7cc05f4d7bae5c23bf7516f88fa52 ""
  "c:/texlive/2023/texmf-dist/fonts/tfm/public/pxfonts/p1xr.tfm" 1707230018 3852 21e5185be576d33a8e695a3e0c97f956 ""
  "c:/texlive/2023/texmf-dist/fonts/tfm/public/pxfonts/pxex.tfm" 1707230018 1088 b1a11d38cc309c3730510ab8754a87f8 ""
  "c:/texlive/2023/texmf-dist/fonts/tfm/public/pxfonts/pxexa.tfm" 1707230018 688 f71e37dcb0a7fbd767c92834041ac9b7 ""
  "c:/texlive/2023/texmf-dist/fonts/tfm/public/pxfonts/pxi.tfm" 1707230018 2032 2261fc76aaf0fe0efda112d373d1e669 ""
  "c:/texlive/2023/texmf-dist/fonts/tfm/public/pxfonts/pxmi.tfm" 1707230018 1896 2285361369ef8697473796d7404b21c5 ""
  "c:/texlive/2023/texmf-dist/fonts/tfm/public/pxfonts/pxmia.tfm" 1707230018 988 b9a2297a65a418b9961eda10f53cd078 ""
  "c:/texlive/2023/texmf-dist/fonts/tfm/public/pxfonts/pxr.tfm" 1707230018 2104 85b979d991702a9f3c087b780f815c50 ""
  "c:/texlive/2023/texmf-dist/fonts/tfm/public/pxfonts/pxsy.tfm" 1707230018 1124 1927b04aea38ae3fabe4f4559c3a7d21 ""
  "c:/texlive/2023/texmf-dist/fonts/tfm/public/pxfonts/pxsya.tfm" 1707230018 964 a1fd6cdaac8937f6b68b03d99f0e3b92 ""
  "c:/texlive/2023/texmf-dist/fonts/tfm/public/pxfonts/pxsyb.tfm" 1707230018 1052 51dddc971c67ab898998be053ea81539 ""
  "c:/texlive/2023/texmf-dist/fonts/tfm/public/pxfonts/pxsyc.tfm" 1707230018 1080 dce487e517c7b5827675202ed17562a2 ""
  "c:/texlive/2023/texmf-dist/fonts/tfm/public/pxfonts/rpxmi.tfm" 1707230018 1012 054642f3c9e8aa99d474c2c322e99b5a ""
  "c:/texlive/2023/texmf-dist/fonts/tfm/public/pxfonts/rpxpplri.tfm" 1707230018 2728 4b4b6637cf36958d09a5c0783164477e ""
  "c:/texlive/2023/texmf-dist/fonts/tfm/public/txfonts/txtt.tfm" 1707231682 1200 1032be7d597a4dce33bcda3c08fc1be0 ""
  "c:/texlive/2023/texmf-dist/fonts/tfm/public/wasy/wasy10.tfm" 1707231899 908 375dcd194b89b9cc9481ab62f2da0667 ""
  "c:/texlive/2023/texmf-dist/fonts/tfm/public/wasy/wasy5.tfm" 1707231899 908 9b2ed8097703005e83b790aecb955a2f ""
  "c:/texlive/2023/texmf-dist/fonts/tfm/public/wasy/wasy7.tfm" 1707231899 912 e43f3049348c6f2670d3b324e657c6e7 ""
  "c:/texlive/2023/texmf-dist/fonts/type1/public/pxfonts/pxsy.pfb" 1707230018 20626 c292fe290cca6e2f2dfcae6644c2f432 ""
  "c:/texlive/2023/texmf-dist/fonts/type1/public/pxfonts/rpxmi.pfb" 1707230018 14672 3ebf07b0dca23cd3f277dcca5042673e ""
  "c:/texlive/2023/texmf-dist/fonts/type1/public/txfonts/txtt.pfb" 1707231682 18134 15936cd318391c2532d84d9a2863d73e ""
  "c:/texlive/2023/texmf-dist/fonts/type1/urw/times/utmr8a.pfb" 1707231552 46026 687528a208fbfc1f00832bb96cccebbb ""
  "c:/texlive/2023/texmf-dist/fonts/vf/adobe/times/ptmr8t.vf" 1707231552 2348 91706c542228501c410c266421fbe30c ""
  "c:/texlive/2023/texmf-dist/fonts/vf/public/pxfonts/pxmi.vf" 1707230018 904 5ba7c68451363e68872ad96afb997cb3 ""
  "c:/texlive/2023/texmf-dist/tex/context/base/mkii/supp-pdf.mkii" 1707229390 71627 94eb9990bed73c364d7f53f960cc8c5b ""
  "c:/texlive/2023/texmf-dist/tex/generic/babel-english/english.ldf" 1707227129 7008 9ff5fdcc865b01beca2b0fe4a46231d4 ""
  "c:/texlive/2023/texmf-dist/tex/generic/babel/babel.sty" 1707227118 150008 7a05b0fdc0167c04e192003e780ab195 ""
  "c:/texlive/2023/texmf-dist/tex/generic/babel/locale/en/babel-en.ini" 1707227118 3966 caeee5a9e5771d4446aa1ca9015ba1b2 ""
  "c:/texlive/2023/texmf-dist/tex/generic/babel/locale/en/babel-english.tex" 1707227118 336 ed676b5e7dfd862bc78d634f6a973f37 ""
  "c:/texlive/2023/texmf-dist/tex/generic/babel/txtbabel.def" 1707227119 6948 df63e25be1d2bc35bbad5a0141f41348 ""
  "c:/texlive/2023/texmf-dist/tex/generic/iftex/iftex.sty" 1707228674 7237 bdd120a32c8fdb4b433cf9ca2e7cd98a ""
  "c:/texlive/2023/texmf-dist/tex/generic/iftex/ifvtex.sty" 1707228674 1057 525c2192b5febbd8c1f662c9468335bb ""
  "c:/texlive/2023/texmf-dist/tex/generic/pgf/basiclayer/pgfcore.code.tex" 1707229710 1016 1c2b89187d12a2768764b83b4945667c ""
  "c:/texlive/2023/texmf-dist/tex/generic/pgf/basiclayer/pgfcorearrows.code.tex" 1707229710 43820 1fef971b75380574ab35a0d37fd92608 ""
  "c:/texlive/2023/texmf-dist/tex/generic/pgf/basiclayer/pgfcoreexternal.code.tex" 1707229710 19324 f4e4c6403dd0f1605fd20ed22fa79dea ""
  "c:/texlive/2023/texmf-dist/tex/generic/pgf/basiclayer/pgfcoregraphicstate.code.tex" 1707229710 6038 ccb406740cc3f03bbfb58ad504fe8c27 ""
  "c:/texlive/2023/texmf-dist/tex/generic/pgf/basiclayer/pgfcoreimage.code.tex" 1707229710 6911 f6d4cf5a3fef5cc879d668b810e82868 ""
  "c:/texlive/2023/texmf-dist/tex/generic/pgf/basiclayer/pgfcorelayers.code.tex" 1707229710 4883 42daaf41e27c3735286e23e48d2d7af9 ""
  "c:/texlive/2023/texmf-dist/tex/generic/pgf/basiclayer/pgfcoreobjects.code.tex" 1707229710 2544 8c06d2a7f0f469616ac9e13db6d2f842 ""
  "c:/texlive/2023/texmf-dist/tex/generic/pgf/basiclayer/pgfcorepathconstruct.code.tex" 1707229710 44195 5e390c414de027626ca5e2df888fa68d ""
  "c:/texlive/2023/texmf-dist/tex/generic/pgf/basiclayer/pgfcorepathprocessing.code.tex" 1707229710 17311 2ef6b2e29e2fc6a2fc8d6d652176e257 ""
  "c:/texlive/2023/texmf-dist/tex/generic/pgf/basiclayer/pgfcorepathusage.code.tex" 1707229710 21302 788a79944eb22192a4929e46963a3067 ""
  "c:/texlive/2023/texmf-dist/tex/generic/pgf/basiclayer/pgfcorepatterns.code.tex" 1707229710 9691 3d42d89522f4650c2f3dc616ca2b925e ""
  "c:/texlive/2023/texmf-dist/tex/generic/pgf/basiclayer/pgfcorepoints.code.tex" 1707229710 33335 dd1fa4814d4e51f18be97d88bf0da60c ""
  "c:/texlive/2023/texmf-dist/tex/generic/pgf/basiclayer/pgfcorequick.code.tex" 1707229710 2965 4c2b1f4e0826925746439038172e5d6f ""
  "c:/texlive/2023/texmf-dist/tex/generic/pgf/basiclayer/pgfcorerdf.code.tex" 1707229710 5196 2cc249e0ee7e03da5f5f6589257b1e5b ""
  "c:/texlive/2023/texmf-dist/tex/generic/pgf/basiclayer/pgfcorescopes.code.tex" 1707229710 20821 7579108c1e9363e61a0b1584778804aa ""
  "c:/texlive/2023/texmf-dist/tex/generic/pgf/basiclayer/pgfcoreshade.code.tex" 1707229710 35249 abd4adf948f960299a4b3d27c5dddf46 ""
  "c:/texlive/2023/texmf-dist/tex/generic/pgf/basiclayer/pgfcoretransformations.code.tex" 1707229710 22012 81b34a0aa8fa1a6158cc6220b00e4f10 ""
  "c:/texlive/2023/texmf-dist/tex/generic/pgf/basiclayer/pgfcoretransparency.code.tex" 1707229710 8893 e851de2175338fdf7c17f3e091d94618 ""
  "c:/texlive/2023/texmf-dist/tex/generic/pgf/frontendlayer/tikz/libraries/tikzlibrarytopaths.code.tex" 1707229710 11518 738408f795261b70ce8dd47459171309 ""
  "c:/texlive/2023/texmf-dist/tex/generic/pgf/frontendlayer/tikz/tikz.code.tex" 1707229710 186782 af500404a9edec4d362912fe762ded92 ""
  "c:/texlive/2023/texmf-dist/tex/generic/pgf/libraries/pgflibraryplothandlers.code.tex" 1707229710 32995 ac577023e12c0e4bd8aa420b2e852d1a ""
  "c:/texlive/2023/texmf-dist/tex/generic/pgf/math/pgfint.code.tex" 1707229710 3063 8c415c68a0f3394e45cfeca0b65f6ee6 ""
  "c:/texlive/2023/texmf-dist/tex/generic/pgf/math/pgfmath.code.tex" 1707229710 949 cea70942e7b7eddabfb3186befada2e6 ""
  "c:/texlive/2023/texmf-dist/tex/generic/pgf/math/pgfmathcalc.code.tex" 1707229710 13270 2e54f2ce7622437bf37e013d399743e3 ""
  "c:/texlive/2023/texmf-dist/tex/generic/pgf/math/pgfmathfloat.code.tex" 1707229710 104717 9b2393fbf004a0ce7fa688dbce423848 ""
  "c:/texlive/2023/texmf-dist/tex/generic/pgf/math/pgfmathfunctions.base.code.tex" 1707229710 10165 cec5fa73d49da442e56efc2d605ef154 ""
  "c:/texlive/2023/texmf-dist/tex/generic/pgf/math/pgfmathfunctions.basic.code.tex" 1707229710 28178 41c17713108e0795aac6fef3d275fbca ""
  "c:/texlive/2023/texmf-dist/tex/generic/pgf/math/pgfmathfunctions.code.tex" 1707229710 9649 85779d3d8d573bfd2cd4137ba8202e60 ""
  "c:/texlive/2023/texmf-dist/tex/generic/pgf/math/pgfmathfunctions.comparison.code.tex" 1707229710 3865 ac538ab80c5cf82b345016e474786549 ""
  "c:/texlive/2023/texmf-dist/tex/generic/pgf/math/pgfmathfunctions.integerarithmetics.code.tex" 1707229710 3177 27d85c44fbfe09ff3b2cf2879e3ea434 ""
  "c:/texlive/2023/texmf-dist/tex/generic/pgf/math/pgfmathfunctions.misc.code.tex" 1707229710 11024 0179538121bc2dba172013a3ef89519f ""
  "c:/texlive/2023/texmf-dist/tex/generic/pgf/math/pgfmathfunctions.random.code.tex" 1707229710 7890 0a86dbf4edfd88d022e0d889ec78cc03 ""
  "c:/texlive/2023/texmf-dist/tex/generic/pgf/math/pgfmathfunctions.round.code.tex" 1707229710 3379 781797a101f647bab82741a99944a229 ""
  "c:/texlive/2023/texmf-dist/tex/generic/pgf/math/pgfmathfunctions.trigonometric.code.tex" 1707229710 92405 f515f31275db273f97b9d8f52e1b0736 ""
  "c:/texlive/2023/texmf-dist/tex/generic/pgf/math/pgfmathparser.code.tex" 1707229710 37466 97b0a1ba732e306a1a2034f5a73e239f ""
  "c:/texlive/2023/texmf-dist/tex/generic/pgf/math/pgfmathutil.code.tex" 1707229710 8471 c2883569d03f69e8e1cabfef4999cfd7 ""
  "c:/texlive/2023/texmf-dist/tex/generic/pgf/modules/pgfmodulematrix.code.tex" 1707229710 21211 1e73ec76bd73964d84197cc3d2685b01 ""
  "c:/texlive/2023/texmf-dist/tex/generic/pgf/modules/pgfmoduleplot.code.tex" 1707229710 16121 346f9013d34804439f7436ff6786cef7 ""
  "c:/texlive/2023/texmf-dist/tex/generic/pgf/modules/pgfmoduleshapes.code.tex" 1707229710 44792 271e2e1934f34c759f4dedb1e14a5015 ""
  "c:/texlive/2023/texmf-dist/tex/generic/pgf/pgf.revision.tex" 1707229710 114 e6d443369d0673933b38834bf99e422d ""
  "c:/texlive/2023/texmf-dist/tex/generic/pgf/systemlayer/pgf.cfg" 1707229710 926 2963ea0dcf6cc6c0a770b69ec46a477b ""
  "c:/texlive/2023/texmf-dist/tex/generic/pgf/systemlayer/pgfsys-common-pdf.def" 1707229710 5542 32f75a31ea6c3a7e1148cd6d5e93dbb7 ""
  "c:/texlive/2023/texmf-dist/tex/generic/pgf/systemlayer/pgfsys-pdftex.def" 1707229710 12612 7774ba67bfd72e593c4436c2de6201e3 ""
  "c:/texlive/2023/texmf-dist/tex/generic/pgf/systemlayer/pgfsys.code.tex" 1707229710 61351 bc5f86e0355834391e736e97a61abced ""
  "c:/texlive/2023/texmf-dist/tex/generic/pgf/systemlayer/pgfsysprotocol.code.tex" 1707229710 1896 b8e0ca0ac371d74c0ca05583f6313c91 ""
  "c:/texlive/2023/texmf-dist/tex/generic/pgf/systemlayer/pgfsyssoftpath.code.tex" 1707229710 7778 53c8b5623d80238f6a20aa1df1868e63 ""
  "c:/texlive/2023/texmf-dist/tex/generic/pgf/utilities/pgffor.code.tex" 1707229710 24033 d8893a1ec4d1bfa101b172754743d340 ""
  "c:/texlive/2023/texmf-dist/tex/generic/pgf/utilities/pgfkeys.code.tex" 1707229710 39784 414c54e866ebab4b801e2ad81d9b21d8 ""
  "c:/texlive/2023/texmf-dist/tex/generic/pgf/utilities/pgfkeyslibraryfiltered.code.tex" 1707229710 37433 940bc6d409f1ffd298adfdcaf125dd86 ""
  "c:/texlive/2023/texmf-dist/tex/generic/pgf/utilities/pgfrcs.code.tex" 1707229710 4385 510565c2f07998c8a0e14f0ec07ff23c ""
  "c:/texlive/2023/texmf-dist/tex/generic/pgf/utilities/pgfutil-common.tex" 1707229710 29239 22e8c7516012992a49873eff0d868fed ""
  "c:/texlive/2023/texmf-dist/tex/generic/pgf/utilities/pgfutil-latex.def" 1707229710 6950 8524a062d82b7afdc4a88a57cb377784 ""
  "c:/texlive/2023/texmf-dist/tex/latex/amsmath/amsbsy.sty" 1707227001 2222 499d61426192c39efd8f410ee1a52b9c ""
  "c:/texlive/2023/texmf-dist/tex/latex/amsmath/amsgen.sty" 1707227001 4173 82ac04dfb1256038fad068287fbb4fe6 ""
  "c:/texlive/2023/texmf-dist/tex/latex/amsmath/amsmath.sty" 1707227001 88371 d84032c0f422c3d1e282266c01bef237 ""
  "c:/texlive/2023/texmf-dist/tex/latex/amsmath/amsopn.sty" 1707227001 4474 b811654f4bf125f11506d13d13647efb ""
  "c:/texlive/2023/texmf-dist/tex/latex/amsmath/amstext.sty" 1707227001 2444 0d0c1ee65478277e8015d65b86983da2 ""
  "c:/texlive/2023/texmf-dist/tex/latex/base/article.cls" 1707228919 20144 147463a6a579f4597269ef9565205cfe ""
  "c:/texlive/2023/texmf-dist/tex/latex/base/fix-cm.sty" 1707228919 14741 8b0de6b00fb0a5eac1dbb1bd11363c83 ""
  "c:/texlive/2023/texmf-dist/tex/latex/base/fontenc.sty" 1707228919 5119 a04a8b68ab4f6ce800a41f7f8012a10e ""
  "c:/texlive/2023/texmf-dist/tex/latex/base/inputenc.sty" 1707228919 5048 425739d70251273bf93e3d51f3c40048 ""
  "c:/texlive/2023/texmf-dist/tex/latex/base/latexsym.sty" 1707228919 2853 22ef275b938b198870f6474b02bbd3b1 ""
  "c:/texlive/2023/texmf-dist/tex/latex/base/size10.clo" 1707228919 8448 dbc0dbf4156c0bb9ba01a1c685d3bad0 ""
  "c:/texlive/2023/texmf-dist/tex/latex/base/ts1enc.def" 1707228919 8090 f16408278fc28f119d5a6757c212f57e ""
  "c:/texlive/2023/texmf-dist/tex/latex/epstopdf-pkg/epstopdf-base.sty" 1707228076 13886 d1306dcf79a944f6988e688c1785f9ce ""
  "c:/texlive/2023/texmf-dist/tex/latex/geometry/geometry.sty" 1707228381 41601 9cf6c5257b1bc7af01a58859749dd37a ""
  "c:/texlive/2023/texmf-dist/tex/latex/graphics-cfg/color.cfg" 1707228465 1213 620bba36b25224fa9b7e1ccb4ecb76fd ""
  "c:/texlive/2023/texmf-dist/tex/latex/graphics-cfg/graphics.cfg" 1707228465 1224 978390e9c2234eab29404bc21b268d1e ""
  "c:/texlive/2023/texmf-dist/tex/latex/graphics-def/pdftex.def" 1707228466 19448 1e988b341dda20961a6b931bcde55519 ""
  "c:/texlive/2023/texmf-dist/tex/latex/graphics/color.sty" 1707228464 7233 e46ce9241d2b2ca2a78155475fdd557a ""
  "c:/texlive/2023/texmf-dist/tex/latex/graphics/graphics.sty" 1707228464 18387 8f900a490197ebaf93c02ae9476d4b09 ""
  "c:/texlive/2023/texmf-dist/tex/latex/graphics/graphicx.sty" 1707228464 8010 a8d949cbdbc5c983593827c9eec252e1 ""
  "c:/texlive/2023/texmf-dist/tex/latex/graphics/keyval.sty" 1707228464 2671 7e67d78d9b88c845599a85b2d41f2e39 ""
  "c:/texlive/2023/texmf-dist/tex/latex/graphics/mathcolor.ltx" 1707228464 2885 9c645d672ae17285bba324998918efd8 ""
  "c:/texlive/2023/texmf-dist/tex/latex/graphics/trig.sty" 1707228464 4023 293ea1c16429fc0c4cf605f4da1791a9 ""
  "c:/texlive/2023/texmf-dist/tex/latex/l3backend/l3backend-pdftex.def" 1707228896 30006 57b07afb710ee2f649c65cfbafda39c1 ""
  "c:/texlive/2023/texmf-dist/tex/latex/latexconfig/epstopdf-sys.cfg" 1707228972 678 4792914a8f45be57bb98413425e4c7af ""
  "c:/texlive/2023/texmf-dist/tex/latex/pgf/basiclayer/pgf.sty" 1707229710 1090 bae35ef70b3168089ef166db3e66f5b2 ""
  "c:/texlive/2023/texmf-dist/tex/latex/pgf/basiclayer/pgfcore.sty" 1707229710 373 00b204b1d7d095b892ad31a7494b0373 ""
  "c:/texlive/2023/texmf-dist/tex/latex/pgf/compatibility/pgfcomp-version-0-65.sty" 1707229710 21013 f4ff83d25bb56552493b030f27c075ae ""
  "c:/texlive/2023/texmf-dist/tex/latex/pgf/compatibility/pgfcomp-version-1-18.sty" 1707229710 989 c49c8ae06d96f8b15869da7428047b1e ""
  "c:/texlive/2023/texmf-dist/tex/latex/pgf/frontendlayer/tikz.sty" 1707229710 339 c2e180022e3afdb99c7d0ea5ce469b7d ""
  "c:/texlive/2023/texmf-dist/tex/latex/pgf/math/pgfmath.sty" 1707229710 306 c56a323ca5bf9242f54474ced10fca71 ""
  "c:/texlive/2023/texmf-dist/tex/latex/pgf/systemlayer/pgfsys.sty" 1707229710 443 8c872229db56122037e86bcda49e14f3 ""
  "c:/texlive/2023/texmf-dist/tex/latex/pgf/utilities/pgffor.sty" 1707229710 348 ee405e64380c11319f0e249fed57e6c5 ""
  "c:/texlive/2023/texmf-dist/tex/latex/pgf/utilities/pgfkeys.sty" 1707229710 274 5ae372b7df79135d240456a1c6f2cf9a ""
  "c:/texlive/2023/texmf-dist/tex/latex/pgf/utilities/pgfrcs.sty" 1707229710 325 f9f16d12354225b7dd52a3321f085955 ""
  "c:/texlive/2023/texmf-dist/tex/latex/pict2e/p2e-pdftex.def" 1707229753 1168 efb94e82cc1584d4f62679f3487b5339 ""
  "c:/texlive/2023/texmf-dist/tex/latex/pict2e/pict2e.cfg" 1707229753 1920 2185073db458618f4a8a794158cf3681 ""
  "c:/texlive/2023/texmf-dist/tex/latex/pict2e/pict2e.sty" 1707229753 30933 ccdcd551eb516817cc8f41862254e6e7 ""
  "c:/texlive/2023/texmf-dist/tex/latex/psnfss/t1ptm.fd" 1707229876 774 61d7da1e9f9e74989b196d147e623736 ""
  "c:/texlive/2023/texmf-dist/tex/latex/pxfonts/omlpxmi.fd" 1707230018 482 63621b814382da86b0331a0884fcd58c ""
  "c:/texlive/2023/texmf-dist/tex/latex/pxfonts/omspxsy.fd" 1707230018 329 e15c8b040633793aa354b0bc24b01688 ""
  "c:/texlive/2023/texmf-dist/tex/latex/pxfonts/omxpxex.fd" 1707230018 312 f3df603dafe936cc86a6ea8c6be9b266 ""
  "c:/texlive/2023/texmf-dist/tex/latex/pxfonts/ot1pxr.fd" 1707230018 1271 6269fecd1bb3a87db51945d5407a057f ""
  "c:/texlive/2023/texmf-dist/tex/latex/pxfonts/ot1pxtt.fd" 1707230018 1318 172a65b85065a2493414b5348eeb4800 ""
  "c:/texlive/2023/texmf-dist/tex/latex/pxfonts/pxfonts.sty" 1707230018 48019 2e3bbf8abfbbf6f838d4511b95247e7d ""
  "c:/texlive/2023/texmf-dist/tex/latex/pxfonts/t1pxr.fd" 1707230018 1242 088b82853c553269aed332bb8147eb55 ""
  "c:/texlive/2023/texmf-dist/tex/latex/pxfonts/upxexa.fd" 1707230018 310 f6f098de23f2bf849db62de10e9b38a3 ""
  "c:/texlive/2023/texmf-dist/tex/latex/pxfonts/upxmia.fd" 1707230018 334 7e77c6e6f52d1daa93ebbbf2b7edc65e ""
  "c:/texlive/2023/texmf-dist/tex/latex/pxfonts/upxsya.fd" 1707230018 310 ecdb4750b07ee39789d68c7f28b523ef ""
  "c:/texlive/2023/texmf-dist/tex/latex/pxfonts/upxsyb.fd" 1707230018 310 0bc8505695feda7c82a4c392536d9286 ""
  "c:/texlive/2023/texmf-dist/tex/latex/pxfonts/upxsyc.fd" 1707230018 310 34cb5f6d371fa39988d441e401ca6171 ""
  "c:/texlive/2023/texmf-dist/tex/latex/ucs/data/uni-0.def" 1707231713 7784 4da13291385de60ba3c334b604cea4db ""
  "c:/texlive/2023/texmf-dist/tex/latex/ucs/data/uni-248.def" 1707231713 1787 257bd8a1031348afa04fb63d93c492c1 ""
  "c:/texlive/2023/texmf-dist/tex/latex/ucs/data/uni-32.def" 1707231713 8033 68739cf6a91ebc9bff844d07183ecdd3 ""
  "c:/texlive/2023/texmf-dist/tex/latex/ucs/data/uni-34.def" 1707231713 10889 4789a61c771c4cbc86f9aeb9c2a86b8c ""
  "c:/texlive/2023/texmf-dist/tex/latex/ucs/data/uni-global.def" 1707231713 1375 6f2cd39d4e39fd2041083eddc1b4df18 ""
  "c:/texlive/2023/texmf-dist/tex/latex/ucs/data/uninames.dat" 1707231713 731311 5eda8e97477754a7657d6660a50eba5f ""
  "c:/texlive/2023/texmf-dist/tex/latex/ucs/ucs.sty" 1707231713 28980 991f740b2125a7752224e3e7e51912a1 ""
  "c:/texlive/2023/texmf-dist/tex/latex/ucs/ucsencs.def" 1707231713 22451 4813aebd39d52954775dc133caf20eeb ""
  "c:/texlive/2023/texmf-dist/tex/latex/ucs/utf8x.def" 1707231713 8944 e3433baec74c4b7b278c6b6a547ff9ec ""
  "c:/texlive/2023/texmf-dist/tex/latex/wasysym/uwasy.fd" 1707231900 2237 c50bf1089c7a46a0d4e9a119e980be4e ""
  "c:/texlive/2023/texmf-dist/tex/latex/wasysym/wasysym.sty" 1707231900 10978 7fbfbe7bbcbe1f73acbe32ae2f10c666 ""
  "c:/texlive/2023/texmf-dist/tex/latex/xcolor/xcolor.sty" 1707231945 55487 80a65caedd3722f4c20a14a69e785d8f ""
  "c:/texlive/2023/texmf-dist/web2c/texmf.cnf" 1707226908 41009 84b61f42d16d06bedb915f57aa2374cf ""
  "c:/texlive/2023/texmf-var/fonts/map/pdftex/updmap/pdftex.map" 1707232267 5518053 a4b7c5f5cc9ed4d84e5a79508415191e ""
  "c:/texlive/2023/texmf-var/web2c/pdftex/pdflatex.fmt" 1707232446 8211041 3dbb0df1cb3a956649382bade93fc5d2 ""
  "c:/texlive/2023/texmf.cnf" 1707232236 713 e69b156964470283e0530f5060668171 ""
  "td1.aux" 1709885940 112 d2ca28f0a8afe573a12973a007b9ea93 "pdflatex"
  "td1.tex" 1709885914 56478 70cfcbe84f41b3e8441b3086dcb6e730 ""
  (generated)
  "td1.aux"
  "td1.log"
  "td1.pdf"
  (rewritten before read)
